Id;Titre;Type;Status;Auditeur;Gestionnaire;Catégorie;Texte;Date de début;Date de fin;Type de date;Province;Ville;Code Postal;Adresse;Téléphone;Fax;E-mail;Site;Label personne en chaise roulante;Label personne marchant difficilement;Label personne aveugle;Label personne malvoyante;Label personne sourde;Label personne malentendante;Label personne avec difficulté de compréhension;Texte pour tous;Texte personne en chaise roulante;Texte personne marchant difficilement;Texte personne aveugle;Texte personne malvoyante;Texte personne sourde;Texte personne malentendante;Texte personne avec difficulté de compréhension;Adaptations personne en chaise roulante;Adaptations personne marchant difficilement;Adaptations personne aveugle;Adaptations personne malvoyante;Adaptations personne sourde;Adaptations personne malentendante;Adaptations personne avec difficulté de compréhension;Texte adaptations;Prénom du contact;Nom du contact;Téléphone du contact;Fax du contact;GSM du contact;Email du contact;Date 1ere labellisation;Date du dernier renouvellement;Date de fin de labellisation;ASBL;Personne ayant effectué le relevé;Date du relevé;Remarques;Date de création de la fiche
20;Office du Tourisme;Bâtiment;Publiée;;;Infrastructure touristique/culturelle/sportive/récréative;"Première ville touristique de Wallonie, Liège recèle d'innombrables richesses à découvrir. Découvrez-la ville à travers de multiples itinéraires de découverte, à pied, à vélo, en bateau, en train touristique, en visites guidées. Rendez-vous à l'Office du Tourisme de Liège.

 

 

 

 

 

 

 

 

 
";;;;Liège;Liège;4000;En Féronstrée, 92;04 221 92 21;04 221 92 22;office.tourisme@liege.be;www.liege.be/tourisme;Orange;Orange;Vert;Vert;Gris;Orange;Vert;"
	Personnel formé à l'accueil des personnes à mobilité réduite
	Bâtiment ne disposant pas de parking privé
	Parking réservé aux personnes handicapées le plus proche situé à la Place Saint Barthélémy (+/- 100 m)
	Distribution d'une brochure à l'attention des personnes à mobilité réduite recensant l'ensemble des attractions touristiques accessibles de la ville
	Organisation régulière de visites guidées à l'attention des personnes à mobilité réduite


 

Stationnement : la Ville de Liège a établi un <a href=""http://www.liege.be/mobilite/personne-a-mobilite-reduite/personne-a-mobilite-reduite-pmr-1#stationnement"">plan de situation</a> des emplacements de parking pour personnes handicapées

 
";"Points forts


	Accueil : sonnette à l'attention des PMR permettant d'appeler le personnel en cas de difficulté ; présence d'une table dans le hall d'accueil pour accueillir les personnes en fauteuil roulant ; brochures touristiques disposées sur divers présentoirs à hauteur accessible
	Circulation intérieure : ample et dégagée


 

Points faibles


	Stationnement : parking et abords en pavés difficilement praticables
	Entrée : précédée d'un plan incliné difficile à franchir ; porte un peu lourde à ouvrir ; absence d'une aire de rotation dans le sas d'entrée

";"Points forts


	Stationnement : présence d'emplacements (non réservés) en voirie face à l'entrée
	Accueil : présence de bancs dans le hall d'accueil, brochures touristiques disposées sur des présentoirs à bonne hauteur 
	Circulation intérieure : ample et dégagé


 

Points faibles


	 Stationnement : parking et abords en pavés difficilement praticables
	 Entrée : plan incliné un peu trop pentu
	 Circulation : revêtement de sol un peu glissant

";"Points forts


	Accès en voirie : traversées de voirie aux abords signalées à l'aide de dalles podotactiles
	Entrée : facilement identifiable grâce à la présence de deux bacs de plantations
	Accueil : guichet dans l'alignement de la porte d'entrée
	Circulation intérieure : dégagée de tout obstacle dangereux


 

Points faibles


	Accueil : absence de ligne guide artificielle orientant vers le guichet d'accueil
	Adaptation : pas d'adaptation spécifique pour les personnes non-voyantes

";"Points forts


	Accès en voirie : traversées de voirie aux abords signalées à l'aide de dalles podotactiles
	Entrée : présence d'une enseigne bien contrastée ; entrée à rue facilement repérable
	Accueil : guichet dans l'alignement de la porte d'entrée
	Circulation intérieure : dégagée de tout obstacle dangereux


 

Points faibles


	Accès en voirie : présence de potelets non contrastés sur les trottoirs
	Adpatation : absence de brochures en grands caractères

";"Points forts


	Accueil : guichet sans vitre ; bon éclairage
	Adaptation : organisation régulière de visites guidées en langue des signes


 

Point faible


	Adaptation : le personnel le pratique pas la langue des signes

";"Points forts


	Accueil : guichet sans vitre ; bon éclairage
	Adaptation : organisation régulière de visites guidées en langue des signes


 

Point faible


	Adaptation : absence de boucle d'induction magnétique au guichet

";"Points forts


	Identification : bâtiment facilement identifiable grâce à la présence d'une enseigne et du numéro postal
	Accueil : personnel formé à l'accueil des PMR
	Signalétique : identification aisée des services


               

Point faible


	Adaptation : absence de brochure en facile à lire

";;;;;;;;;Pierre;Tiereliers;04 221 93 19;;;pierre.tiereliers@liege.be;1/04/2014;;1/04/2017;Gamah asbl;Marie-Ange Vandecandelaere et Sarah Logan;11/06/2013;"Une main courante sera placée prochainement sur le plan incliné à l'entrée&hellip;
";0000-00-00 00:00:00
45;Médiacité (centre commercial);Bâtiment;Publiée;;;Commerce;"Médiacité, c'est avant tout un centre commercial situé à Liège avec une architecture hors du commun. Un centre commercial avec plus de 124 enseignes diverses.

 

 

 

 

 

 

 

 

 
";20/03/2014;19/04/2017;;Liège;Liège;4020;Boulevard Raymond Poincaré, 7;04 341 12 12;04 341 01 00;info@mediacite.be;www.mediacite.be;Vert;Vert;Gris;Gris;Vert;Orange;Vert;"Centre commercial ouvert à tous, déplacement en toute autonomie sur les deux niveaux et dans le parking

Centre commercial desservi par une ligne de bus accessible

Nombreux parking en sous-sol

 

Aucun commerce, ni terrasse de café et/ou restaurant n'a été évalué.

 

Stationnement : la Ville de Liège a établi un <a href=""http://www.liege.be/mobilite/personne-a-mobilite-reduite/personne-a-mobilite-reduite-pmr-1#stationnement"">plan de situation </a>des emplacements de parking pour personnes handicapées
";"Points forts


	Accès depuis la voirie : traversée accessible Place Brenu
	Stationnement : nombreux parking pour personnes handicapées en sous-sol quelle que soit l'entrée
	Circulation : du parking aux différents commerces, circulation en toute autonomie ; circulation intérieure ample et dégagée de plain-pied


 

Points faibles


	Accueil : pas de guichet adapté au point info commun à la billetterie /concerts mais possibilité d'utiliser le bancontact
	WC PMR : pas de lisse sur la porte (aide possible du personnel présent pour refermer la porte si besoin), chasse d'eau un peu haute, grosse poubelle placée dans l'aire de transfert mais possibilité de la faire bouger

";"Points forts


	Stationnement : nombreux parking pour personnes handicapées en sous-sol quelle que soit l'entrée
	Circulation : nombreux sièges à disposition sur l'ensemble du site ; circulation ample et aisée
	Adaptation : mise à disposition de chaises roulantes


 

Points faibles


	Circulation : risque de fatigue accrue liée à de très grands espaces communs, longues distances à parcourir entre les différentes entrées (superficie totale avec commerces de 45 000 m2)

";"Point fort


	Accès par les transports en commun : ligne de bus adaptée n° 4 ; arrêt de bus ""médiacité"" équipé de dalles podotactiles


 

Points faibles


	Accès depuis la voirie : aucun repère tactile au sol pour retrouver l'entrée depuis la voirie
	Circulation : grands espaces de circulation ; impossibilité de circuler seul sur le site ; aucun repère, ni ligne guide naturelle dans la zone de circulation collective aux différents magasins

";"Points forts


	Identification du bâtiment : présence d'une enseigne bien contrastée
	Circulation : plan du site disponible sur panneaux verticaux


 

Points faibles


	Sécurité : les dessous d'escalators ne sont pas protégés ou servent de terrasse
	Circulation : aucun point de repère tactile ou contraste suffisant permettant de circuler seul sur le site ; terrasses délimitées par des poteaux mobiles ; nombreux obstacles (poubelles, sièges, arbres, panneaux signalétiques) dans l'allée centrale mais détectable la canne ; une bande gris foncé mais très peu contrastée le long des commerces peut servir de ligne guide naturelle

";"Points forts


	Signalétique : mise à disposition de borne interactive tactile : point info, plans du site, liste des commerces et plan visuelpour se repérer dans les différents étages et allées du site ; bonne signalétique en hauteur (wc, évacuation secours)
	Circulation : circulation intérieure aisée


 

Points faibles


	Adpatation : pas de personnel formé à la langue des signes

";"Points forts


	Accueil : guichet ouvert sans vitre
	Signalétique : mise à disposition de borne interactive tactile : point info, plans du site, liste des commerces et plan visuelpour se repérer dans les différents étages et allées du site ; bonne signalétique en hauteur (wc, évacuation secours)
	Circulation : circulation intérieure aisée


 

Point faible


	Accueil : point d'accueil très bruyant aux heures d'affluence

";"Points forts


	Identification du bâtiment : présence d'une enseigne bien contrastée
	Accueil : personnel d'accueil au point d'info à disposition pour orienter le client


 

Point faible


	Circulation : complexité du site, difficulté de se repérer dans l'espace (circulation en forme de vagues) ; difficulté de retrouver seul le commerce souhaité dans un aussi grand espace ; nombreux commerces sur 2 niveaux

";;;;;;;;"C'est quoi ce cadre ""adaptations FR"" ???

Et ces bullets adaptations pers en chaise, etc ??
";Lucie;Somers;04 341 12 12;04 341 01 00;;lucie.somers@mediacite.be;1/04/2014;;1/04/2017;ASPH;Christine Bourdeauducq et Rose Eboko;15/10/2013;;20/03/2014 10:09
46;Hôtel Radisson Blu Palace;Bâtiment;Publiée;;;Hébergement;"Niché au c&oelig;ur de la Ville d'eau et à côté du plus vieux casino d'Europe, le Radisson Blu Palace Hotel, Spa est directement relié par un funiculaire privé aux Thermes de Spa.

 

Facilement accessible en voiture, l'hôtel est situé à 10 minutes à pied de la gare

Les 120 chambres et suites sont équipées de tout le confort d'un hôtel de première classe.

Internet haut débit gratuit incluant la connexion sans fil dans toutes les chambres et dans toutes les salles de réunion.

Nos clients peuvent accéder au centre fitness avec terrasse, sauna, bain Turc ou soit profiter des services des thermes de Spa.

Des traitements exclusifs Spa sont disponibles sur réservation comme des traitements thermaux traditionnels ainsi que des soins de beauté adaptés aux clients.

La Brasserie, Bar propose des spécialités brasserie régionales et internationales et dispose d'une terrasse chauffée qui est très populaire.

Le Radisson Blu Palace Hotel dispose de 2 salles de réunion, 'Aqua' et 'Terra'. Ces salles sont chacune divisibles en 4 salles distinctes pouvant accueillir 150 séminaristes ou 180 invités pour un cocktail.

 

 

 

 

 

 

 

 

 

 

 

 

 

 

 
";;;;Liège;Spa;4900;Place Royale, 39;087 27 97 00;087 27 97 01;info.spapalace@radissonblu.com;www.radissonblu.fr/palacehotel-spa;Orange;Vert;Orange;Orange;Gris;Gris;Orange;"L'hôtel Radisson Blue Palace est bien repérable grâce à son enseigne.

Un parking est situé en sous-sol de l'hôtel-restaurant, un ticket est à prendre à l'entrée via une borne et le règlement se fait à la réception.

L'accès en voirie se fait par un trottoir public suivi d'une rampe extérieure qui compense les 4 marches de l'escalier.

La porte d'entrée est une porte à tambour doublée d'une porte battante juste à côté.

Les chiens d'assistance sont les bienvenus, tant à la Brasserie que dans les chambres.
";"Points forts


	Stationnement : parking payant en sous-sol donnant accès directement à l'hôtel via un ascenseur avec emplacement PMR
	Entrée : cheminement et entrée à rue rendus accessibles grâce à la présence d'une rampe qui compense les quelques marches
	Chambres : 3 chambres adaptées avec salle de bains équipée de barres d'appuis et douche de plain-pied.


 

Points faibles


	Accueil : comptoir d'accueil sans aménagement spécifique
	Chambres : les chambres adaptées ne comportent la distance latérale nécessaire pour actionner la clenche en autonomie depuis l'intérieur ; dans la salle de douche, le lavabo n'est desservi que par une aire de rotation de 110 cm
	Salle de restauration : pas d'aménagement particulier ; buffet à 95 cm de haut sans dégagement par-dessous et bar à 125 cm du sol

";"Points forts


	Stationnement : parking payant en sous-sol donnant accès directement à l'hôtel via un ascenseur avec emplacement PMR
	Entrée : cheminement et entrée à rue rendus accessibles grâce à la présence d'une rampe qui compense les quelques marches
	Chambres : 3 chambres adaptées avec salle de bains équipée de barres d'appuis et douche de plain-pied.


 

Points faibles


	Circulation : peu d'assises dans les couloirs
	Salle de douche : siège de douche mobile peu adapté

";"Points forts


	Stationnement : parking payant en sous-sol donnant accès directement à l'hôtel via un ascenseur avec emplacement PMR
	Accueil : accueil situé juste à côté de l'entrée permet d'être accueilli dès l'entrée dans le bâtiment


 

Points faibles


	Adaptation : aucune information tactile ou podotactile
	Ascenceur : pas de synthèse vocale

";"Point fort


	Accueil : accueil situé juste à côté de l'entrée permet d'être accueilli dès l'entrée dans le bâtiment


 

Points faibles


	Circulation : peu de contraste d'une manière générale et vitrage non sécurisé, principalement à l'entrée
	Ascenceur : pas de synthèse vocale

";"Points faibles


	Sécurité : pas d'alerte doublée de flash lumineux
	Adaptation : pas de personnel formé à la langue des signes 

";"Points faibles


	Sécurité : pas d'alerte doublée de flash lumineux
	Adaptation : pas de boucle à induction magnétique, pas d'accueil spécifique

";"Point faible


	Adaptation : pas d'accueil spécifique

";;;;;;;;;Benoît;Ruelle;087 27 97 30;087 27 97 01;;benoit.ruelle@radissonblu.com;1/04/2014;;1/04/2017;Plain-Pied asbl;Laurence Tonglet;26/09/2013;;20/03/2014 12:25
64;Hotel Husa de la couronne;Bâtiment;Publiée;;;Hébergement;"Hôtel ***, situé à 50 m de la prestigieuse gare TGV de Liège-Guillemins conçue par le renommé architecte espagnol Santiago Calatrava. Confort, modernité et fonctionnalité sont au rendez- vous. Que vous voyagez pour les affaires ou pour le plaisir, possibilité de réserver une chambre double, triple ou familiale communicante. Accès Internet dans les chambres et PC à disposition dans la salle du petit-déjeuner.

 

 

 
";;;;Liège;Liège;4000;Place des Guillemins, 11 ;04 340 30 00;04 340 30 01;info.couronne@husa.es;www.hotelhusadelacouronne.be;Gris;Orange;Orange;Orange;Gris;Orange;Orange;"Hôtel facilement accessible via les transports en commun.

Après avoir passé la porte d'entrée (petite marche compensée par une rampe), la circulation au rez-de-chaussée et aux étages est correcte. Les portes, et plus particulièrement celle de la chambre PMR, ne peuvent être utilisées par une personne seule en fauteuil roulant en toute autonomie (ouverture intérieure de la porte de la chambre très difficile). Salle de bains et toilettes adaptées dans chacune des chambres PMR et/ou communicante (1/étage).

 

Informations générales


	Dépose minute devant l'hôtel
	Tarif préférentiel du parking collectif payant à 100 m, adapté PMR
	Une chambre adaptée PMR et/ou communicante par étage près des ascenseurs
	Aide nécessaire pour ouvrir la porte d'entrée
	L'ensemble des parties communes est accessible à tous sauf pour la personne en fauteuil roulant
	Porte du sas au rez-de-chaussée toujours ouverte vers l'accueil
	Fermeture automatique des portes en cas d'incendie


 

Stationnement : la Ville de Liège a établi un <a href=""http://www.liege.be/mobilite/personne-a-mobilite-reduite/personne-a-mobilite-reduite-pmr-1#stationnement"">plan de situation </a>des emplacements de parking pour personnes handicapées

 

 

 

 

 

 

 

 

 

 
";"Points forts


	Stationnement : zone de dépose minute devant l'hôtel
	Circulation : accès aisé dans les couloirs



	Accès chambre : grande aire de rotation devant/dans la chambre
	Chambre : l'hôtel autorise la location d'un lit adapté si nécessaire ; 4 chambres PMR communicantes près des ascenseurs; suffisamment grande ; équipée d'une salle d'eau + wc adapté ; barre d'appui dans les toilettes


 

Points faibles


	Stationnement : parking collectif à + de 300 m



	Circulation : si la personne séjourne seule, aide nécessaire pour ouvrir les portes du sas aux étages et la porte de la chambre réservée aux PMR (pas d'espace suffisant pour accéder à la clef électronique)
	WC PMR : aide nécessaire pour ouvrir la porte des toilettes réservées au public du 1er étage
	Chambre : pas de barre d'appui dans la douche


 

 

 

 

 
";"Points forts


	Stationnement : zone de dépose minute devant l'hôte ; présence d'emplacements de stationnement (non réservés) en voirie dans la rue.
	Circulation : circulation intérieure de plain-pied


 

Points faibles


	Entrée : plan incliné non sécurisé
	Circulation : bâtiment structuré en carré, nécessite de longs déplacements suivant le type de chambre sans possibilité de s'assoeir ; à partir du couloir central, 2-3 marches à franchir pour rejoindre certaines ailes du bâtiment
	Chambre triple : peu d'espace de circulation entre les lits ; marche à franchir pour accéder à la douche


 

 

 

 

 
";"Points forts


	Accès extérieur : traversées de voiries aux abords de la gare signalées à l'aide de dalles podotactiles
	Entrée : ligne guide naturelle le long de la façade de l'hôtel pour trouver l'entrée
	Circulation : aucun obstacle dans la circulation des parties communes de l'hôtel


 

Points faibles


	Accueil : absence de ligne guide artificielle orientant vers le guichet d'accueil situé dans le fond d'un couloir
	Ascenseur : pas de braille ni de synthèse vocale
	Escalier : escaler vers les toilettes au sous-sol non sécurisé


 

 

 

 

 

 

 

 

 

 
";"Circulation intérieure sans obstacle, sol et murs contrastés dans le couloir des chambres (sol rouge, murs blancs et portes jaunes)

 

Points forts


	Identification du bâtiment : présence d'une enseigne bien contrastée sur la façade
	Accès extérieur : traversées de voiries aux abords de la gare signalées à l'aide de dalles podotactiles
	Entrée à rue : ligne guide naturelle le long de la façade de l'hôtel pour trouver l'entrée
	Signalétique : numéros des chambres suffisamment grands et éclairés lorsque la chambre est occupée
	Circulation : aucun obstacle dans la circulation des parties communes de l'hôtel


 

Points faibles


	Accueil : couloir de l'entrée très sombre, avec au fond un comptoir vertical lumineux
	Escalier : escaler vers les toilettes au sous-sol non sécurisé
	 


 

 

 

 

 
";"Aucune mesure spécifique n'est prévue dans l'hôtel pour les personnes sourdes. Le guichet d'accueil est ouvert.

 

Points forts


	Identification du bâtiment : hôtel très près de la gare et identifiable à distance
	Accueil : guichet sans vitre


 

Points faibles


	Accueil : pas de boucle à induction magnétique au guichet
	Adaptation : pas de personnel formé à la langue des signes


 

 

 
";"Points forts


	Accueil : guichet sans vitre
	Salle de restauration : Isolant acoustique sur les murs


 

Point faible


	Accueil : pas de boucle à induction magnétique au guichet


 

 

 

 

 

 
";"Points forts


	Identification du bâtiment : facilement identifiable grâce à la présence d'une enseigne, du n° postal et des drapeaux en façade
	Utilisation : usage facile de la clé électronique dans la chambre


 

Points faibles


	Circulation : difficulté probable pour retrouver sa chambre
	Adaptation : pas de personnel formé à l'accueil de PMR


 

 

 
";;;;;;;;;Thierry;Couclet;tcouclet@husa.es;04 340 30 00;04 340 30 01;tcouclet@husa.es;1/04/2014;;1/04/2017;ASPH;Christine Bourdeauducq;8/10/2013;"Disponibilité du personnel 24/24h ; 7/7j ;

Sonnette-parlophone extérieur mais non accessible aux chaisards

Personnel de l'accueil à disposition pour aide éventuelle via télephonne de la chambre

 

 

 

 
";28/03/2014 11:03
65;Musée de la Vie wallonne;Bâtiment;Publiée;;;Infrastructure touristique/culturelle/sportive/récréative;"Installé au coeur de Liège, et rénové depuis 2008, <a href=""http://www.provincedeliege.be/fr/node/821"" target=""_self"">le Musée de la Vie wallonne </a>propose un regard original et entier sur la Wallonie du 19e siècle à nos jours.

Tout au long de la visite, la vie en Wallonie est proposée à travers une grande diversité de thèmes et une belle variété d'objets, telle est la richesse de ce nouveau parcours, fruit d'une muséographie et d'une scénographie de pointe.
";;;;Liège;Liège;4000;Cour des Mineurs;04 237 90 50;04 237 90 89;info@viewallonne.be;www.viewallonne.be;Orange;Orange;Gris;Gris;Orange;Orange;Vert;"Depuis sa réouverture en 2008, le Musée a amélioré son accessibilité aux personnes à mobilité réduite. La circulation pour les personnes à mobilité réduite dans un bâtiment classé n'est pas toujours aisée. Néanmoins, la Province de Liège a &oelig;uvré pour rendre les espaces accessibles au plus grand nombre.

 

Parking

Sur le parking de la Cour des Mineurs, également surnommé ""Cour Chamart"", un emplacement est officiellement marqué et réservé pour les véhicules conduits par ou transportant des personnes à mobilité réduite. Si vous nous rejoignez pour une visite du Musée ou dans le cadre d'une de nos activités, il vous est donc possible de vous parquer à cet endroit.

Les deux places de parking réservées situées à l'arrière de l'église Saint-Antoine sont temporairement inaccessibles, pour cause d'instabilité de la dalle.

 

 


	Ligne de bus à proximité de l'entrée principale, voirie à proximité aménagée
	Bâtiment classé et rénové
	Circulation aisée et dégagée au sein du musée
	Utilisation d'un ascenseur pour tous les visiteurs
	Audio-guide pour tous


 

Stationnement : la Ville de Liège a établi un <a href=""http://www.liege.be/mobilite/personne-a-mobilite-reduite/personne-a-mobilite-reduite-pmr-1#stationnement"">plan de situation </a>des emplacements de parking pour personnes handicapées
";"Points forts


	Stationnement : parking réservé aux personnes handicapées dans la cour (en pavés)
	Entrée : possibilité d'entrer par la porte située face au parking réservé ; sonnette placée sur la porte extérieure ; les employés vous ouvriront et pourront faire appel aux gardiens qui vous accompagneront de votre arrivée à votre départ, en toute discrétion
	Accueil : guichet adapté
	Circulation intérieure : en toute autonomie ; petit plan incliné pour avoir accès à certaines parties d'exposition placée sur des îlots
	WC PMR : toilettes adaptées au sous-sol


 

Points faibles


	Entrée : si entrée par la porte officielle, obligation de faire ouvrir les 2 battants ; résistance des portes intérieures assez lourde mais le personnel de garde est toujours à disposition
	Scénographie : tiroirs à légende des vitrines un peu hauts mais cela n'empêche pas de visiter le musée
	Exposition temporaire : l'exposition « chapeaux » est partiellement inaccessible en raison d'un libre passage réduit à 70 cm


 

 
";"Points forts


	Stationnement : parking réservé aux personnes handicapées dans la cour (en pavés)
	Entrée : possibilité d'entrer par la porte située face au parking réservé ; sonnette placée sur la porte extérieure ; les employés vous ouvriront et pourront faire appel aux gardiens qui vous accompagneront de votre arrivée à votre départ, en toute discrétion
	Circulation intérieure : en toute autonomie ; assise possible dans les grandes salles


 

Points faibles


	Entrée : si entrée par la porte officielle, résistance des portes intérieures assez lourde mais le personnel de garde est toujours à disposition
	Circulation : musée sur 2 étages ; longues distances
	Scénographie : nombreuses vitrines à regarder et/ou légendes à lire ; risque de fatigabilité accrue
	Escalier intérieur : non contrasté (marches, nez de marches) ; baie vitrée


 

 
";"Points forts


	Adaptation : visite tactile de l'exposition temporaire sur demande ; audio-guide


 

Points faibles


	Accès extérieur : petits potelets en pierre bleue sur le chemin extérieur de la cour (autour de l'ascenseur)
	Circulation : quelques obstacles suspendus non sécurisés ; pas d'adaptation spécifique pour la visite


 

 
";"Points forts


	Identification du bâtiment : facilement identifiable à distance
	Adaptation : visite tactile de l'exposition temporaire sur demande ; audio-guide numéroté


 

Points faibles


	Accès extérieur : petits potelets en pierre bleue sans aucun contraste sur le chemin extérieur de la cour (autour de l'ascenseur)
	Accueil : difficultés pour trouver le guichet dont l'éclairage en leds bleus reflète dans le sas vitré
	Escalier intérieur : non contrasté (marches, nez de marches) ; baie vitrée
	Circulation : quelques obstacles suspendus non sécurisés ; circulation générale non adaptée
	Scénographie : nombreuses légendes à lire dans les vitrines (tiroirs à légendes + légendes spécifiques dans vitrines)
	Eclairage : risque d'éblouissement dans certaines zones entre l'éclairage de certaines vitrines et les points lumineux naturels des fenêtres

";"Points faibles

 


	Scénographie : nombreuses légendes à lire dans les vitrines mais exposition très visuelle
	Langue des signes : pas de personnel formé à la langue des signes


 

 
";"Points forts


	Accueil : Guichet sans vitre
	Scénographie : nombreuses légendes à lire dans les vitrines mais exposition très visuelle


 

Point faible


	Langue des signes : pas de personnel formé à la langue des signes


 
";"Points forts


	Circulation : parcours en suivant une numérotation au sol
	Scénographie : possibilité de ne visiter que certaines parties du musée car exposition très visuelle


 

Points faibles


	Circulation : sensation de vide sur les passerelles suspendues vitrées lors du passage d'une aile à l'autre
	Escalier : cage d'escalier vitrée non sécurisée ; main courante non continue


 
";;;;;;;;;Jean-Michel;Stockem;04 237 90 84;04 237 90 89;;info@viewallonne.be;1/04/2014;;1/04/2017;ASPH;Christine Baurdeauducq;;" 

 

 

 

 

 

 

 

 
";28/03/2014 11:40
66;Office du Tourisme / Maison du Tourisme du Pays des Sources;Bâtiment;Publiée;;;Bâtiment de service public/banque/bureau;"Retrouvez toute l'information touristique de Spa en un seul endroit.

 

Infos pratiques concernant les sources, les parcs, les Thermes de Spa, le Casino, les festivals, les loisirs et la culture, les visites guidées, le shopping .... bref tout ce dont vous avez besoin pour préparer votre découverte de Spa.

 

L'Office du Tourisme / Maison du Tourisme du Pays des Sources vous accueille :

- en saison (01/04 au 30/9) : en semaine de 9h à 18h et le week-end de 10h à 18h.

- hors saison (01/10 au 31/03) : en semaine de 9h à 17h et le week-end de 10h à 17h.

 
";;;;Liège;Spa;4900;Rue du Marché, 1A;087 79 53 53 ;087 79 53 54;info@spatourisme.be;www.spatourisme.be;Vert;Vert;Vert;Orange;Orange;Orange;Orange;"Le bâtiment de l'Office du Tourisme ne dispose pas d'une enseigne visible depuis l'extérieur

 

 

 
";"Points forts


	Entrée : de plain-pied et porte coulissante automatique ; attention toutefois à un filet d'eau sur le cheminement de 2 cm de haut
	Accueil : comptoir d'accueil avec partie surbaissée


 

Points faibles


	Accès depuis la voirie : l'office du tourisme se trouve sur un îlot dont une seule traversée est de plain-pied à proximité de la rue Rogier. Les autres comportent une bordure de 16 cm
	WC PMR : présence d'un wc adapté mais : porte double dont un battant fait 68 cm ; sas un peu étroit ; l'aire de transfert ne se situe pas dans l'axe de la porte, la cuvette est assez basse et les barres d'appui se situent à 96 cm


 

 

 

 

 
";"Points forts


	Entrée : de plain-pied et porte coulissante automatique ; attention toutefois à un filet d'eau sur le cheminement
	Comptoir d'accueil juste en face de la porte (petite distance)
	Possibilité de s'asseoir sur une chaise devant le comptoir surbaissé


 

Points faibles


	Accès depuis la voirie : l'office du tourisme se trouve sur un îlot dont une seule traversée est de plain-pied à proximité de la rue Rogier. Les autres comportent une bordure de 16 cm
	WC PMR : présence d'un wc adapté avec une porte double dont un battant fait 68 cm, sas un peu étroit


 

 

 

 

 
";"Points forts


	Entrée : Porte coulissante avec détection automatique
	Accueil : Comptoir d'accueil juste devant la porte


 

Points faibles


	Circulation : Pas de ligne guide
	Documentation : pas de support spécifique


 

 

 
";"Points forts


	Entrée : Porte coulissante avec détection automatique
	Accueil : Comptoir d'accueil juste devant la porte


 

 Point faible


	Entrée : très peu de contraste au niveau de la porte d'entrée   


 

 

 
";"Point fort


	Circulation : organisation spatiale claire avec accueil juste en face de la porte 


 

Point faible


	Langue des signes : le personnel n'est pas formé à la langue des signes 


 

 

 
";"Points forts


	Accueil : espace baigné de lumière naturelle, ce qui facilite la lecture labiale
	Circulation : organisation spatiale claire avec accueil juste en face de la porte 


 

Point faible


	Accueil : guichet ouvert, pas de boucle à induction magnétique


 

 

 
";"Point fort


	Circulation : Organisation spatiale claire avec accueil juste en face de la porte 


 

Points faibles


	Adapation : pas de brochure en facile à lire


 

 

 
";;;;;;;;;Isabelle;Grégoire;087 79 53 50;;;;1/04/2014;;1/04/2017;Plain-Pied asbl;Laurence Tonglet;26/09/2013;" 

 

 
";28/03/2014 12:10
67;Musée Grand Curtius;Bâtiment;Publiée;;;Infrastructure touristique/culturelle/sportive/récréative;"Le Grand Curtius est situé dans un ensemble architectural exceptionnel constitué de bâtiments du XVI au XXIe siècles, magnifiquement restaurés.

Les collections font la part belle à l'histoire mouvementée de Liège depuis ses origines, et se situent au premier plan de l'histoire de l'art. Riches témoignages des premières civilisations, chefs-d'&oelig;uvre de l'art du Moyen Âge, sculptures et orfèvreries baroques se succèdent, sans oublier le Verre et les Armes dont l'extraordinaire richesse font du Grand Curtius un des premiers musées mondiaux en ces matières.

 

 

 

 

 

 

 

 

 

 

 

 

 
";;;;Liège;Liège;4000;En Feronstré, 136;04 222 03 00;087 79 53 54;infograndcurtius@liege.be;www.grandcurtiusliege.be;Vert;Orange;Orange;Orange;Orange;Orange;Orange;"Malgré les bâtiments classés, l'ensemble des salles sont accessibles grâce à 5 ascenseurs ainsi que de petites rampes d'appoint pour le grand palais.

Gros point d'attention sur le cheminement privé avant d'accéder à l'entrée du bâtiment : cheminement avec revêtement en petits pavés de rue comportant des trous.

 

Stationnement : la Ville de Liège a établi un <a href=""http://www.liege.be/mobilite/personne-a-mobilite-reduite/personne-a-mobilite-reduite-pmr-1#stationnement"">plan de situation </a>des emplacements de parking pour personnes handicapées

 
";"Points forts


	Entrée : entrée de plain-pied avec porte coulissante automatique
	Accueil : comptoir d'accueil avec partie surbaissée ; certains membres du personnel sont formés à l'accueil des PMR
	Circulation : malgré les bâtiments classés, l'ensemble des salles sont accessibles grâce à 5 ascenseurs ainsi que de petites rampes d'appoint pour le grand palais.
	WC PMR : 4 wc adaptés


 

Points faibles


	Cheminement : point d'attention sur le cheminement privé avant d'accéder à l'entrée du bâtiment : cheminement avec revêtement en petits pavés de rue comportant des trous de plus de 2 cm avec une pente de 5 % sur 10 m
	Stationnement : emplacements réservés sur la voirie publique, mais longue distance et petits pavés de rue également sur le cheminement public

";"Points forts


	Accueil : certains membres du personnel sont formées à l'accueil des PMR
	Circulation : malgré les bâtiments classés, l'ensemble des salles sont accessibles grâce à 5 ascenseurs ainsi que de petites rampes d'appoint pour le grand palais ; espace pour s'asseoir dans les différentes salles
	Adaptations : chaises roulantes, cannes chaises disponibles en prêt à l'accueil 


 

Points faibles


	Cheminement : point d'attention sur le cheminement privé avant d'accéder à l'entrée du bâtiment : cheminement avec revêtement en petits pavés de rue comportant des trous de plus de 2 cm avec une pente de 5 % sur 10 m
	Stationnement : emplacements réservés sur la voirie publique, mais longue distance et petits pavés de rue également sur le cheminement public
	Circulation : très longue distance pour parcourir l'ensemble du musée ; à l'intérieur du bâtiment, différentes rampes sans main courante

";"Points forts


	Voirie d'accès : traversée dallée juste en face de l'entrée du porche
	Cheminement : après le porche, une rigole à gauche sert de ligne guide naturelle jusqu'à l'entrée
	Entrée : porte d'entrée avec porte coulissante automatique
	Accueil : comptoir d'accueil à proximité de l'entrée sur la gauche ; certains membres du personnel sont formés à l'accueil des PMR
	Adapatations : audio-guide ; possibilité de visite spécifique pour les personnes déficientes visuelles


 

Points faibles


	Escaliers : non signalés et pas toujours de main-courante de part et d'autre
	Circulation : différentes rampes sans main-courante

";"Points forts


	Accueil : certains membres du personnel sont formés à l'accueil des PMR
	Adapatations : audio-guide ; possibilité de visite spécifique pour les personnes déficientes visuelles


 

 Points faibles


	Entrée : très peu de contraste au niveau de la porte d'entrée et du cheminement extérieur    


 

 

 
";"Point fort


	Adaptation : audio-guide avec texte disponible


 

Points faibles


	Sécurité : pas d'alerte doublée de flash lumineux
	Adaptation : pas de personnel formé à la langue des signes 
	Signalétique : pas d'enseigne visible depuis l'extérieur, signalétique intérieure peu présente et peu visible


 

 

 
";"Points forts


	Accueil : certains membres du personnel sont formés à l'accueil des PMR
	Adaptation : audio-guide avec texte disponible


 

Point faible


	Signalétique : signalétique intérieure peu présente et peu visible


 

 

 
";"Point fort


	Accueil : certains membres du personnel sont formés à l'accueil des PMR


 

Point faible


	Circulation : difficulté d'orientation dans les différents espaces
	Signalétique : signalétique intérieure peu présente et peu visible
	Scénographie : le thème, le contenu et la scénographie du musée risquent de ne pas répondre aux besoins spécifiques des personnes avec difficultés de compréhension

";;;;;;;;;Edith;Schurgers;04 221 68 32;;0494 74 45 84;edith.schurgers@liege.be;1/04/2014;;1/04/2017;Plain-Pied asbl;Laurence Tonglet;13/06/2013;;28/03/2014 13:17
101;Brasserie Sauvenière;Bâtiment;Publiée;;;Restauration;"Située juste à côté du cinéma, la brasserie Sauvenière propose un menu varié et permet aux spectateurs de se relaxer dans un cadre décontracté. Elle fait la part belle aux produits équitables et saisonniers. Lors des belles journées ensoleillées, la brasserie s'ouvre sur une grande cour intérieure qui accueille des projections gratuites durant l'été (cinéma en plein air). En outre, le Sauvenière organise ponctuellement des concerts à l'intérieur de la brasserie, ainsi que diverses animations.

 

 

 

 

 

 

 

 

 

 

 
";;;;Liège;Liège;4000;Place Xavier Neujean, 12;04 220 20 99;;contact@grignoux.be;www.grignoux.be/sauveniere_index;Orange;Orange;Gris;Orange;Vert;Orange;Vert;"
	Personnel d'accueil à l'écoute des clients
	Juste à côté du cinéma
	En plein centre de Liège
	Présence d'une terrasse en été


 

Stationnement : la Ville de Liège a établi un <a href=""http://www.liege.be/mobilite/personne-a-mobilite-reduite/personne-a-mobilite-reduite-pmr-1#stationnement"">plan de situation </a>des emplacements de parking pour personnes handicapées

 

 

 
";"Points forts


	Parking : présence de 2 emplacements réservés en voirie à proximité de l'entrée
	Terrasse : présence d'une rampe permettant d'accéder à la terrasse
	Salle de consommation : espace suffisant entre les tables
	Paiement : service et paiement à table


 

Points faibles


	Entrée : la porte entre le cinéma et la brasserie est assez lourde
	WC PMR : pour avoir accès à la toilette PMR, il faut demander une clé au serveur


 

 

 
";"Points forts


	Parking : présence de 2 emplacements réservés en voirie à proximité de l'entrée
	Salle de consommation : espace suffisant entre les tables
	Paiement : service et paiement à table


 

Points faibles


	Entrée : la porte entre le cinéma et la brasserie est assez lourde
	WC PMR : pour avoir accès à la toilette PMR, il faut demander une clé au serveur


 

 

 
";"Point fort


	Circulation : agencement de l'espace facile à comprendre


 

Points faibles


	Circulation : absence de ligne guide
	Adaptation : pas de menu en braille


 

 

 
";"Point fort


	Circulation : agencement de l'espace facile à comprendre


 

Points faibles


	Circulation : absence de ligne guide ; présence de nombreuses vitres ; peu de contrastes


 

 

 
";"Points forts


	Circulation : agencement de l'espace facile à comprendre


 

Points faibles


	Langue des signes : le personnel ne connaît pas la langue des signes


 

 

 
";"Points forts

 


	Salle de consommation : espace suffisant entre les tables, endroit relativement calme


 

 

 
";"Points forts


	Parking : présence de 2 emplacements réservés en voirie à proximité de l'entrée
	Circulation : agencement de l'espace facile à comprendre
	Paiement : service et paiement à table


 

Points faibles


	WC PMR : pour avoir accès à la toilette PMR, il faut demander une clé au serveur


 

 

 
";;;;;;;;;Jean-Marie ;Hermand;04 222 27 78;;;jean-marie.hermand@grignoux.be;1/04/2014;;1/04/2017;;;;;11/04/2014 09:47
103;Cinéma Sauvenière;Bâtiment;Publiée;;;Infrastructure touristique/culturelle/sportive/récréative;"Le Cinéma Sauvenière est situé en plein centre de Liège. Il fait la part belle au cinéma d'auteur et au cinéma indépendant ainsi qu'aux productions plus « grand public ». Certains films sont également projetés en 3D (notamment les productions visant le jeune public). Membre d'Europa Cinema, le Sauvenière propose un large choix de films européens en plus des films belges et internationaux diffusés en version originale.

 

 

 

 

 

 

 

 

 

 

 

 

 

 

 

 
";;;;Liège;Liège;4000;Place Xavier Neujean, 12;04 220 20 99;;contact@grignoux.be; www.grignoux.be;Orange;Orange;Gris;Orange;Orange;Orange;Orange;"
	Personnel d'accueil à l'écoute des clients
	Cinéma à taille humaine
	En plein centre de Liège
	Le parcours menant à l'entrée est de plain-pied


 

Stationnement : la Ville de Liège a établi un <a href=""http://www.liege.be/mobilite/personne-a-mobilite-reduite/personne-a-mobilite-reduite-pmr-1#stationnement"">plan de situation</a> des emplacements de parking pour personnes handicapées
";"Points forts


	Parking : présence de 2 emplacements réservés en voirie à proximité de l'entrée
	Accès aux salles : toutes les salles sont accessibles par ascenseur
	Salles : présence d'emplacements réservés sans siège au sommet
	Evacuation : présence d'une zone de refuge en cas d'incendie


 

Points faibles


	Paiement : système de paiement à la caisse non mobile
	WC PMR : 2 toilettes sont adaptées ; pas de fléchage continu permettant d'y accéder, mais présence du pictogramme international sur la porte

";"Points forts


	Parking : présence de 2 emplacements réservés en voirie à proximité de l'entrée
	Accès aux salles : toutes les salles sont accessibles par ascenseur
	Circulation : aisée


 

Points faibles


	Entrée : porte d'entrée assez lourde mais reste toujours en position ouverte lorsque le cinéma est ouvert
	Circulation : peu de places assises dans les couloirs

";"Point fort


	Adaptation : séances en audiodescription organisées ponctuellement


 

Points faibles


	Circulation : absence de ligne guide ; présence de marches non sécurisées ; présence d'un espace sous escalier non protégé
	Ascenseur : pas de synthèse vocale ; le bouton d'appel d'urgence n'est pas doublé en braille afin de permettre son identification

";"Point fort


	Circulation : facile à comprendre


 

Points faibles


	Circulation : absence de ligne guide ; présence de marches non sécurisées ; présence d'un espace sous escalier non protégé, présence de nombreuses vitres ; peu de contrastes
	Escalier : les nez de marche et le palier ne sont pas contrastés



	
		
			 
		
	

";"Points forts


	Signalétique : présence d'information visuelle ; signalisation permettant de s'orienter facilement dans le bâtiment
	Ascenseur : parlophone muni d'un système visuel signalant que l'appel est pris en compte ; signal sonore à l'ouverture des portes
	Sécurité : système d'alarme doublé de flash lumineux


 

Point faible


	Langue des signes : le personnel ne connaît pas la langue des signes

";"Points forts


	Accueil : guichet ouvert
	Ascenseur : parlophone muni d'un système visuel signalant que l'appel est pris en compte ; signal sonore à l'ouverture des portes
	
	Adaptation : séances en sous-titrage organisées ponctuellement
	
	
	Sécurité : système d'alarme doublé de flash lumineux
	


 

Points faibles


	Adaptation : pas de boucle à induction magnétique

";"Points forts


	Signalétique : présence d'information visuelle ; signalisation permettant de s'orienter facilement dans le bâtiment


 

Point faible


	Adaptation : pas de brochure en ""facile à lire""

";;;;;;;;;Lo;Maghuin;04 222 27 78;;;lo@grignoux.be;1/04/2014;;1/04/2017;;;;" 

 

 
";11/04/2014 12:09
108;Les petits plats canailles du beurre blanc;Bâtiment;Publiée;;;Restauration;"Implanté en plein centre de la cité ardente, le restaurant 'Les petits plats canailles du beurre blanc' vous accueillent dans un cadre calme, chaleureux et de bon goût pour y déguster une cuisine pleine de saveur et de créativité. Des produits frais et sans cesse renouvelés issus du marché matinal quotidien sont accommodés pour votre plus grand plaisir gustatif. Outre des produits de première qualité, vous trouverez un grand choix dans la carte des vins.
";;;;Liège;Liège;4000;Rue du Pont, 5;04 221 22 65;;aubeurreblanc@gmail.com;www.beurreblanc.be ;Gris;Orange;Vert;Vert;Orange;Vert;Vert;"Petite salle de restaurant, fonctionnelle et conviviale. Une seule personne s'occupe des clients.

L'enseigne et le numéro postal sont visibles depuis la voirie.

Une seule porte d'entrée : pas de confusion possible.

Il n'y a pas de parking propre au restaurant, le stationnement se fait sur le domaine public.

 

Stationnement : la Ville de Liège a établi un <a href=""http://www.liege.be/mobilite/personne-a-mobilite-reduite/personne-a-mobilite-reduite-pmr-1#stationnement"">plan de situation </a>des emplacements de parking pour personnes handicapées

 
";"Points forts


	Salle de restauration : salle de petite capacité, fonctionnelle et conviviale ; une seule et même personne s'occupe des clients


 

Points faibles


	Entrée : devant la porte présence d'un plan incliné de 7 % sans palier de repos ; distance latérale non disponible mais grande disponibilité du personnel
	WC PMR : toilettes inaccessibles


 

 

 
";"Points forts


	Salle de restauration : salle de petite capacité, fonctionnelle et conviviale ; une seule et même personne s'occupe des clients


 

Points faibles


	WC PMR : porte d'accès assez étroite ; pièce relativement grande, mais non pourvue de barre d'appui
	Entrée : absence de main-courante dans la rampe (mais très courte et sans danger)


 

 

 
";"Points forts


	Entrée : une seule porte d'entrée, pas de confusion possible  
	Salle de restauration : salle de petite capacité, fonctionnelle et conviviale ; une seule et même personne s'occupe des clients ; menu énoncé à voix haute


 

 

 
";"Points forts


	Entrée : une seule porte d'entrée, pas de confusion possible  
	Salle de restauration : salle de petite capacité, fonctionnelle et conviviale ; une seule et même personne s'occupe des clients ; menu énoncé à voix haute


 

 

 
";"Points forts


	Salle de restauration : salle de petite capacité, fonctionnelle et conviviale ; une seule et même personne s'occupe des clients ; menu disponible sur tableaux


 

Points faibles


	Langue des signes :  personnel ne pratiquant pas la langue des signes
	Sécurité : pas d'alerte doublée de flash lumineux


 

 

 
";"Points forts


	Salle de restauration : salle de petite capacité, fonctionnelle et conviviale ; une seule et même personne s'occupe des clients ; menu disponible sur tableaux


 

Point faible


	Sécurité : pas d'alerte doublée de flash lumineux


 

 

 
";"Points forts


	Entrée : une seule porte d'entrée, pas de confusion possible
	Salle de restauration : salle de petite capacité, fonctionnelle et conviviale ; une seule et même personne s'occupe des clients  


 

 

 
";;;;;;;;;Bernadette;Hella;04 221 22 65;;;aubeurreblanc@gmail.com;1/04/2014;;1/04/2017;;;;;16/04/2014 09:38
109;Auberge de Jeunesse 'Georges Simenon';Bâtiment;Publiée;;;Hébergement;"L'Auberge de Jeunesse de Liège est située à 5 minutes à pied de l'hyper centre-ville dans un quartier résolument jeune et vivant.

Elle se compose d'un bâtiment principal, installé dans un ancien couvent et entièrement rénové, et d'une annexe inscrite dans l'esprit ""architecture passive et écologique"".

L'Auberge dispose de 215 lits ainsi que de nombreuses installations, comme un bar, des salles de réunion, une cour intérieure, ou encore un coin informatique vous proposant le Wifi gratuit.

 

 

 
";;;;Liège;Liège;4020;Rue Georges Simenon, 2;04 344 56 89;04 344 56 87;liege@lesaubergesdejeunesse.be;www.lesaubergesdejeunesse.be/Auberge-de-Jeunesse-a-Liege-Dans?lang=fr;Gris;Orange;Orange;Orange;Gris;Gris;Orange;"Bâtiment reconnaissable grâce à son architecture particulière, à son enseigne et au logo international des auberges de jeunesse :

 


	pas de stationnement sur le domaine privé,
	présence des heures d'ouverture,
	mise en évidence de l'entrée par un auvent, 
	entrée dans l'angle facilitant le repérage de la porte, 
	entrée très proche du trottoir.


 

Stationnement : la Ville de Liège a établi un <a href=""http://www.liege.be/mobilite/personne-a-mobilite-reduite/personne-a-mobilite-reduite-pmr-1#stationnement"">plan de situation </a>des emplacements de parking pour personnes handicapées
";"Point fort


	Signalétique : cohérente et homogène


 

Points faibles


	Accès : plan incliné courbe en pavés de 6 % sur 6 m sans main-courante ni chasse-roues
	Accès aux chambres : portes avec un libre passage inférieur à 80 cm
	Sanitaires : porte de la salle de douche et WC trop étroite ; lavabo sans dégagement suffisant par-dessous, WC trop bas

";"Points forts


	Circulation : circulation vers les chambres amples ; revêtement non glissant ; pas d'obstacles ou de dangers


 

Points faibles


	Entrée : escalier de 2 marches sans main-courante
	Accès aux chambres : portes avec un libre passage inférieur à 80 cm
	Ascenseur : temporisation de la fermeture des portes un peu courte
	Sanitaires : porte de la salle de douche et WC trop étroite ; lavabo sans dégagement suffisant par-dessous, WC trop bas, barre d'appui principale à bonne hauteur mais trop courte ; barre d'appui secondaire trop éloignée de l'axe

";"Points forts


	Circulation : circulation vers les chambres amples ; revêtement non glissant ; pas d'obstacles ou de dangers


 

Points faibles


	Entrée : escalier de 2 marches sans sécurisation tactile
	Ascenseur : pas de braille ; pas de synthèse vocale mais les chiffres sont en relief
	Signalétique : pas de relief pour les numéros des chambres

";"Points forts


	Circulation : circulation vers les chambres amples ; revêtement non glissant ; pas d'obstacles ou de dangers


 

Points faibles


	Identification du bâtiment : absence du numéro postal mais présence de plusieurs enseignes
	Entrée : escalier de 2 marches sans sécurisation tactile
	Ascenseur : boutons de sélection des étages non contrastés (mais chiffres sont en relief) et peu en relief par rapport à la paroi
	Escaliers : forts sombres et glissants ; pas de sécurisation visuelle ni tactile

";"Points forts


	Signalétique : cohérente et homogène
	Circulation : circulation vers les chambres amples
	Salle de restauration : présence d'une table ronde


 

Points faibles


	Ascenseur : parlophone non muni d'un signal visuel indiquant que l'appel est pris en compte
	Sécurité : pas d'alerte doublée de flash lumineux

";"Points forts


	Signalétique : cohérente et homogène
	Circulation : circulation vers les chambres amples
	Salle de restauration : présence d'une table ronde


 

Points faibles


	Accueil : absence de boucle à induction magnétique au guichet et environnement assez bruyant
	Ascenseur : parlophone non muni d'un signal visuel indiquant que l'appel est pris en compte
	Sécurité : pas d'alerte doublée de flash lumineux

";"Point fort


	Signalétique : cohérente et homogène


 

Point faible


	Ascenseur : temporisation de la fermeture des portes un peu courte

";;;;;;;;;Laurent;MARECHAL;04 344 56 89;04 344 56 87;0497 72 76 32;lma@lesaubergesdejeunesse.be ;1/04/2014;;1/04/2017;Gamah;Chantal Moëns;;" 

 

 

 
";16/04/2014 10:10
110;Abbaye de Stavelot;Bâtiment;Publiée;;;Infrastructure touristique/culturelle/sportive/récréative;"De l'histoire de l'une des plus anciennes fondations monastiques de Belgique à celle du plus beau circuit du monde en passant par l'univers artistique de l'une des personnalités marquantes du 19ème  siècle, le poète Guillaume Apollinaire, venez découvrir l'Abbaye de Stavelot et son site, inscrite au patrimoine exceptionnel de Wallonie. Outre l'abbaye actuelle, les vestiges archéologiques de l'église abbatiale du 11ème siècle ont été récemment mis au jour.

 

Trois musées accueillent les visiteurs sur place :
-    le Musée de la Principauté de Stavelot-Malmedy
-    le Musée du Circuit de Spa-Francorchamps
-    le Musée Guillaume Apollinaire

L'Abbaye de Stavelot abrite également 2 espaces d'expositions, le Café et la Boutique des Musées et ainsi que plusieurs salles de réception.

 

 

 

 

 

 

 

 

 

 

 

 

 

 

 
";;;;Liège;Stavelot;4970;Cour de l'Abbaye, 1;080 88 08 78;080 88 08 77;etc@abbayedestavelot.be;www.abbayedestavelot.be ;Orange;Orange;Gris;Gris;Orange;Orange;Orange;"Le bâtiment est facilement identifiable.

Un seul parking réservé aux personnes handicapées est prévu ; sans délimitation au sol et les joints sont larges et creux, il est cependant  très proche de l'entrée. Les autres possibilités de stationnement sont sur le domaine public.

Le point d'accueil est situé au milieu du hall d'entrée. Au rez-de-chaussée, la circulation est ample.
";"Points forts


	Entrée : entrée PMR juste à côté de la porte à tambour et signalée
	Couloir du 2ème étage : présence d'un plan incliné non sécurisé mais cheminement alternatif possible
	Scénographie : accès possible à la grande majorité des expositions (les légendes et vitrines ne sont pas trop hautes)


 

Points faibles


	Voie d'accès extérieure : en pavés peu praticables (joints creux)
	Entrée PMR : problème de rampe qui réduit le libre passage sur un battant à 60 cm ; mais possibilité de maintenir les deux battants en position ouverte ; résistance élevée à l'ouverture
	Ascenseur : les boutons sont placés à plus de 120 cm de haut (travaux prévus au cours de l'année 2014)
	WC PMR : l'aire de rotation extérieure de 96 cm de diamètre ; aménagement intérieur correct ; pas de bon dégagement sous l'évier (travaux prévus au cour de l'année 2014)

";"Point fort


	Entrée : entrée PMR juste à côté de la porte à tambour et signalée


 

Points faibles


	Voie d'accès extérieure : en pavés peu praticables (joints creux)
	Entrée PMR : résistance élevée à l'ouverture mais possibilité d'utiliser la porte d'entrée à tambour à ouverture manuelle
	Accueil : pas de siège à proximité de l'entrée (sièges prévus au cours de l'année 2014)
	Couloir du rez-de-chaussée : beaucoup de sièges mais peu confortables (pas de dégagement par-dessous)
	Couloir du 2ème étage : présence de tabourets mais sans accoudoirs ni dégagement par-dessous
	Couloir du sous-sol : absence de main-courante dans un plan incliné de 7 % sur 10 m ; peu de sièges (main-courante prévue au cours de l'année 2014)

";"Point fort


	Accueil : proche de la porte d'entrée, la personne déficiente visuelle est identifiable par le personnel d'accueil en cas de problème


 

Points faibles


	Entrée : pas de guidage vers l'entrée et porte d'entrée difficilement repérable
	Escaliers : escaliers autour de l'ascenseur non sécurisés tactilement
	Couloir du rez-de-chaussée : mobilier en saillie (tablettes) non sécurisé
	Ascenseur : boutons sensitifs ; absence de braille et pas de synthèse vocale
	Musée Apollinaire : salle problématique avec des panneaux accrochés à des fils (elle peut être contournée) 

";"Points forts


	Accueil : proche de la porte d'entrée, la personne déficiente visuelle est identifiable par le personnel d'accueil en cas de problème
	Signalétique et scénographie : assez visible et lisible


 

Points faibles


	Couloir du rez-de-chaussée : mobilier en saillie (tablettes) non sécurisé, forte variation d'éclairage entre certains espaces, présence de baies vitrées non contrastées
	Escaliers : escaliers autour de l'ascenseur non sécurisés visuellement ou tactilement. Au 2ème étage ; un escalier non sécurisé, main-courante d'un seul côté et non prolongée jusqu'au sol
	Musée Apollinaire (1er étage) : une salle problématique avec des panneaux accrochés à des fils (elle peut être contournée) ; variations entre les différents types d'éclairage.
	Couloir du sous-sol : éclairage un peu faible

";"Points forts


	Accueil : guichet ouvert
	Signalétique : assez visible et lisible


 

Points faibles


	Accueil : présence d'un contre-jour derrière le guichet
	Sécurité : pas de système d'alerte visuelle alors que le visiteur est souvent seul dans les salles

";"Points forts


	Accueil : guichet ouvert
	Signalétique : assez visible et lisible


 

Points faibles


	Accueil : présence d'un contre-jour derrière le guichet
	Sécurité : pas de système d'alerte visuelle alors que le visiteur est souvent seul dans les salles

";"Point fort


	Signalétique : assez visible et lisible, présence des pictogrammes et d'un code de couleurs pour s'orienter


 

Point faible


	Brochures : brochures à l'attention des enfants ; pas de doublage en facile à lire

";;;;;;;;;Bernard;Moreau;080 88 08 78 ;080 88 08 77;0474 66 31 07;b.moreau@abbayedestavelot.be;1/04/2014;;1/04/2017;Gamah;Thomas Deremince;2/10/2013;" 

 

 
";16/04/2014 10:37
111;Galeries Saint-Lambert;Bâtiment;Publiée;;;Commerce;"Les Galeries Saint-Lambert : votre shopping au c&oelig;ur de liège !

 

Depuis septembre 2004, leurs 40 boutiques, établissements horeca et grandes enseignes internationales telles que Galeria Inno, Media Markt, Fnac, Esprit, Hema, Champion, River Woods ou Ici Paris XL, font battre le c&oelig;ur de tous les amateurs de lèche-vitrines.

 

 

 
";;;;Liège;Liège;4000;Place St-Lambert, 27;04 223 23 00;04 223 23 10;;www.galeries-st-lambert.be ;Orange;Orange;Gris;Orange;Orange;Orange;Orange;"Bâtiment facilement repérable vu son architecture 

Le parking présente quelques difficultés, il n'a pas été pris en compte dans l'analyse du bâtiment vu les possibilités de stationnement situés à d'autres endroits

La signalétique utilisée n'est pas standard et y est peu présente

 

Stationnement : la Ville de Liège a établi un <a href=""http://www.liege.be/mobilite/personne-a-mobilite-reduite/personne-a-mobilite-reduite-pmr-1#stationnement"">plan de situation </a>des emplacements de parking pour personnes handicapées
";"Point fort


	Circulation interne : aisée et espace couvert


 

Points faibles


	Couloir d'accès : présence d'une pente de 5,2 % sur plus de 10 m
	Ascenseur : boutons placés assez haut
	Accès WC : rampe d'accès dont la largueur est ponctuellement réduite ; absence de chasse-roues en début de rampe (côté vide) ; dimension du palier de repos un peu réduite
	WC PMR : barre d'appui principale trop éloigné de l'axe et oblique ; lavabo avec siphon non déporté ; miroir placé trop haut

";"Point fort


	Accès WC : présence d'une main-courante dans la rampe         


 

Points faibles


	Couloir d'accès : absence de mains-courantes dans la pente ; revêtement un peu glissant
	WC PMR : une seule barre d'appui placée à bonne distance
	Circulation interne : très peu de zones de repos

";"Points faibles


	Ascenseur : pas de braille et pas de synthèse vocale
	Couloir d'accès et circulation interne : pas de guidage présent
	Escalator : pas de sécurisation avec dalles tactiles

";"Points faibles


	Couloir d'accès : pas de sécurisation des baies vitrées
	Ascenseur : les boutons ne sont pas contrastés visuellement et pas de synthèse vocale
	Escalator : pas de sécurisation avec dalles tactiles

";"Point fort

Ascenseur : cabine transparente

 

Point faible

Signalétique : peu présente ; les pictogrammes nesont pas standards
";"Point fort

Ascenseur : cabine transparente

 

Point faible

Signalétique : peu présente ; les pictogrammes nesont pas standards
";"Point faible

Signalétique : peu présente ; les pictogrammes nesont pas standards
";;;;;;;;;Emilie;de Sart;04 223 23 00;;;emilie.desart@scms.be;1/04/2014;;1/04/2017;Gamah asbl;Alexandra Dusausoy;9/10/2013;" 

 

 

 
";16/04/2014 11:08
112;Grand Café de la Gare;Bâtiment;Publiée;;;Restauration;"La Brasserie-Restaurant «Grand Café de la Gare » est située dans la Gare des Guillemins à Liège. Elle est ouverte tous les jours de 7 à 23 heures (dernière commande en cuisine pour 22h) et comprend 150 places. Pour la bonne saison, une élégante terrasse d'une centaine de sièges vous accueille sur l'espace face à la Gare.

La destination est double : celle de brasserie où l'on pourra prendre une boisson, savourer son petit-déjeuner, manger de la petite restauration, dans une partie de l'espace. Mais c'est également un restaurant à vocation gastronomique : Erick Lamarre est à la tête des fourneaux pour une cuisine de plaisirs, de découvertes et de créations, le tout sous la conduite d'un chef qui sait marquer de son empreinte et de sa personnalité des préparations de choix et de qualité; il est entouré d'une équipe de professionnels qui sauront donner au lieu les lettres de noblesse propres à la gastronomie wallonne et son riche terroir. La salle est sous la conduite d'Hélène Lamarre, secondée par un personnel dévoué et efficace.
";;;;Liège;Liège;4000;Gare des Guillemins, 20;04 222 43 59;;contact@grandcafedelagare.be ;www.grandcafedelagare.be ;Orange;Orange;Orange;Gris;Orange;Orange;Vert;"Stationnement réservé sur le domaine public assez éloigné de l'entrée
Présence d'une zone de dépose-minute à proximité

Accessible depuis l'intérieur de la gare

Le personnel est très attentif aux besoins des personnes à mobilité réduite

 

Stationnement : la Ville de Liège a établi un <a href=""http://www.liege.be/mobilite/personne-a-mobilite-reduite/personne-a-mobilite-reduite-pmr-1#stationnement"">plan de situation </a>des emplacements de parking pour personnes handicapées
";"Point fort


	Accueil : personnel est très attentif aux besoins des PMR


 

Points faibles


	Porte d'entrée : la résistance est assez forte
	Salle de restauration : certains espaces de circulation sont un peu étroits mais le personnel vous place aux endroits les plus accessibles ; piètement central de la table un peu gênant
	WC PMR : non signalé depuis la salle de restaurant, sas d'accès un peu étroit ; absence de distance latérale pour accéder à la poignée de porte ; barres d'appui trop courtes ; aire de transfert trop étroite ; lavabo à bonne hauteur mais dégagement trop faible ; verrou peu préhensible

";"Point fort


	Accueil : personnel est très attentif aux besoins des PMR


 

Points faibles


	Porte d'entrée : la résistance est assez forte
	Salle de restauration : certains espaces de circulation sont un peu étroits mais le personnel vous place aux endroits les plus accessibles ; piètement central de la table un peu gênant
	
	WC PMR : non signalé depuis la salle de restaurant, sas d'accès un peu étroit ; absence de distance latérale pour accéder à la poignée de porte ; barres d'appui trop courtes ; aire de transfert trop étroite ; lavabo à bonne hauteur mais dégagement trop faible ; verrou peu préhensible
	

";"Point fort


	Service : service à table


 

Point faible


	Adaptation : pas de menu en braille

";"Points forts


	Service : service à table


 

Points faibles


	Porte d'entrée : porte vitrée et baies vitrées non sécurisées

";"Points faibles


	Salle de restauration : pas de tables rondes
	Langue des signes : le personnel ne pratique pas la langue des signes
	Sécurité : pas d'alerte doublée d'un flash lumineux dans les sanitaires

";"Points faibles


	Salle de restauration : pas de tables rondes
	Sécurité : pas d'alerte doublée d'un flash lumineux dans les sanitaires

";"Points forts


	Service : service à table

";;;;;;;;;Erick;Lamarre;04 222 43 59;;;ericklamarre@skynet.be ;1/04/2014;;1/04/2017;;;;;16/04/2014 11:33
113;Aquarium-Muséum;Bâtiment;Publiée;;;;"Dans les salles de l'Aquarium, 46 bassins accueillent près de 2500 poissons des océans, des mers, des lacs et des rivières du monde entier : les légendaires piranhas, les murènes, les Demoiselles des récifs coralliens, les poissons clowns dans leurs anémones, les poissons à respiration aérienne, les tilapias, les brochets, anguilles, perches et autres poissons de chez nous, &hellip; sans oublier les fascinants requins à pointes noires ou encore les « bébés roussettes ».

 

 

 

 

 

 

 

 

 

 

 

 

 

 

 

 
";;;;Liège;Liège;4000;Quai Edouard Van Beneden, 22;04 366 50 21;04 366 50 93;;www.aquarium-museum.be;Gris;Orange;Gris;Gris;Orange;Orange;Orange;"Le bâtiment est facilement identifiable vu son architecture.

L'entrée principale est située au-dessus d'une importante volée d'escaliers, mais une entrée pour PMR est proposée au niveau de la voirie. Une sonette permet d'annoncer son arrivée.

 

Stationnement : la Ville de Liège a établi un <a href=""http://www.liege.be/mobilite/personne-a-mobilite-reduite/personne-a-mobilite-reduite-pmr-1#stationnement"">plan de situation</a> des emplacements de parking pour personnes handicapées
";"Points forts


	Stationnement : présence d'un emplacement pour personne handicapée à proximité de l'entrée pour PMR
	Circulation intérieure : aisée


 

Points faibles


	Entrée PMR : l'entrée PMR est située au niveau de la voirie ; la sonnette est difficilement accessible et ne possède pas de parlophone ; présence d'une rampe directement après la porte sans aire de rotation
	Accueil : pas de guichet adapté
	WC PMR : présence de mobilier dans l'aire de transfert

";"Points forts


	Stationnement : présence d'un emplacement pour personne handicapée à proximité de l'entrée pour PMR
	Circulation intérieure : aisée


 

Points faibles


	Entrée PMR :  l'entrée PMR est située au niveau de la voirie ; la sonnette est difficilement accessible et ne possède pas de parlophone ; présence d'une rampe directement après la porte

";"Points faibles


	Scénographie : présence de nombreuses vitrines, rien ne peut être touché ou manipulé
	Circulation : absence de ligne guide ; présence de marches non sécurisées
	Ascenseur : pas de synthèse vocale

";"Points faibles


	Circulation : peu de luminosité ; absence de contrastes
	Exposition : présence de nombreuses vitrines et de contre-jour 
	Circulation : présence de marches non sécurisées
	Ascenseur : pas de synthèse vocale

";"Points forts


	Exposition : présence d'information visuelle
	Signalétique : présence d'une signalisation permettant de s'orienter clairement dans le bâtiment
	Adaptation : l'Aquarium-Muséum peut faire appel à un traducteur en langue des signes, cependant ce service est payant ; toutes les séances spécifiques se font sur demande


 

Points faibles


	Langue des signes : le personnel ne connaît pas la langue des signes
	Adaptation : aucun aménagement spécifique

";"Points forts


	Exposition : présence d'information visuelle
	Signalétique : présence d'une signalisation permettant de s'orienter clairement dans le bâtiment


 

Point faible


	Adaptation : aucun aménagement spécifique


 
";"Points forts


	Exposition : présence d'information visuelle
	Signalétique : présence d'une signalisation permettant de s'orienter clairement dans le bâtiment


Point faible


	Adaptation : pas de brochure en facile à lire

";;;;;;;;;Sonia;Wanson;04 366 50 03;04 366 50 93;;sonia.wanson@ulg.ac.be;1/04/2014;;1/04/2015;ANLH;Christophe Bokuma;20/10/2013;" 

 

 

 

 

 
";16/04/2014 13:28
114;Parc du Domaine de Wégimont;Bâtiment;Publiée;;;Parc/jardin/promenade;"En bordure du plateau de Herve dans un cadre de verdure arboré et fleuri, le Domaine provincial de Wégimont vous invite à découvrir son centre d'hébergement, de loisirs et de délassement.

Sur une superficie de 22 hectares, son château aménagé en centre d'hébergement, son parc de loisirs, ses 7 étangs dont 1 aménagé en étang de pêche, son arboretum, ses parties boisées, son camping et sa galerie culturelle attirent chaque année des milliers de visiteurs.

 

Pour préaprer votre visite, un <a href=""http://www.provincedeliege.be/fr/node/303"">plan</a> est disponible sur le site internet du Domaine de Wégimont.

 

 

 

 
";;;;Liège;Soumagne;4630;Chaussée de Wégimont, 76;04 237 24 00;04 237 24 01;chateau.wegimont@provincedeliege.be ;www.provincedeliege.be/wegimont ;Orange;Orange;Gris;Orange;Orange;Orange;Orange;"Enseigne présente aux deux entrées et bien visible.

 

Deux parkings de 100 et 170 places avec la présence de 6 parkings pour personnes handicapées. Le revêtement de ces emplacements est peu praticable.

 

Parc en site propre ; cheminements continus en asphalte formant un guidage naturel, présence d'une déclivité importante entre le bas et le haut du domaine.

 

 

 

 

 

 

 

 

 

 

 
";"Points forts


	Accueil : guichet extérieur (à l'entrée du site) où les visiteurs restent dans leurs voitures pour obtenir leur accès
	Promenade : cheminements confortables en asphalte


 

Points faibles


	Stationnement : revêtement du parking peu praticable, présence d'un filet d'eau en demi-lune
	Accueil : guichet à l'intérieur du château sans dégagement et vitré
	Promenade : pas d'espace de stationnement praticable à côté des bancs
	Signalétique : pas de fléchage des infrastructures spécifiques


 

 

 

 

 
";"Point fort


	Promenade : cheminements confortables en asphalte ; présence d'une pente naturelle importante mais beaucoup de sièges disponibles


 

Points faibles


	Stationnement : revêtement peu praticable, présence d'un filet d'eau en demi-lune ; autres emplacements en nombre suffisant assez proches
	Signalétique : pas de fléchage des infrastructures spécifiques


 

 

 

 

 
";"Point fort

Promenade : présence de lignes guides naturelles continues grâce aux sentiers

 

Point faible

Signalétique : pas de plan de localisation tactile

 

 

 

 

 
";"Point fort

Promenade : présence de lignes guides naturelles continues grâce aux sentiers

 

Point faible

Panneaux d'information : contraste et hauteur caractères insuffisants

 

 

 

 
";"Point faible


	Signalétique : pas de fléchage en continu


 

 

 

 

 
";"Point faible


	Signalétique : pas de fléchage en continu


 

 

 

 

 

 

 

 
";"Points faibles


	Signalétique : pas de fléchage en suffisance ;  pas d'indication ""Vous êtes ici"" sur les rares plans du site


 

 

 

 

 

 

 

 
";;;;;;;;;Eric;Mestrez;04 237 24 00;04 237 24 01;;eric.mestrez@provincedeliege.be;1/04/2014;;1/04/2017;;;;;16/04/2014 15:25
115;Gîte Le « Git?âne »;Bâtiment;Publiée;;;Hébergement;"Situé à Trooz, aux portes de l'Ardenne, les Gîtes aux Anes vous accueillent dans un cadre chaleureux, convivial et tout à fait inédit.


Trois infrastructures indépendantes vous permettront de profiter pleinement de l'environnement naturel qui les entoure :
- Le 'Gît'âne' accueille les grandes familles et dispose en outre d'une infrastructure adéquates aux personnes à mobilité réduite
- 'La Flânerie' est un appartement moderne et convivial pour vivre à 4
- 'LA Tsig'âne', une roulotte magique qui vous plongera au c&oelig;ur de l'esprit des gens du voyage.

Les nombreuses balades à pied ou en vélo ou à dos d'âne encourageront digestion et détente. Mais si vous préférez le «farniente», tout y est prédisposé.
Bon séjour !

 

 

 

 

 

 

 

 

 
";;;;Liège;Trooz;4870;Sur le Batty, 79;087 71 90 44;;info@gitesauxanes.be ;www.gitesauxanes.be ;Orange;Vert;Vert;Vert;Vert;Vert;Vert;"Gîte facilement reconnaissable grâce à son architecture spéciale et son clocher

Il est possible d'accéder au gîte par deux portes d'entrée différentes : la principale via le rez-de-chaussée et une secondaire au 1er étage. 

Une passerelle en bois à l'extérieur permet d'accéder directement au 1er étage et d'éviter la déclivité naturelle importante de la rue. 

Une place de stationnement réservée est prévue devant. 

Le gîte dispose d'un ascenseur.
";"Points forts


	Stationnement : place réservée devant la passerelle en bois permettant d'accéder directement à l'entrée accessible (au 1er   étage)
	Entrée 1er étage : entrée de plain-pied


 

Points faibles


	Entrée : entrée sans marche au rez-de-chaussée mais déclivité naturelle importante de la rue
	WC PMR rez-de-chaussée : cabine un peu étroite ; aire de transfert entravée par barre d'appui secondaire mais possibilité de se mettre en oblique ; petit lave-mains
	WC PMR 1er étage : porte s'ouvrant vers l'intérieur ; barre d'appui oblique
	Ascenseur : bouton d'appel un peu haut ; cabine de 100 par 130  cm
	Chambre : hauteur du lit de 58 cm
	Salle de douche : présence d'une rampe d'accès qui réduit l'aire de rotation pour ouvrir la porte ; siège de douche rabattable mais barre d'appui principale fort éloignée du siège ; robinetterie inaccessible depuis le siège car placée sur le mur d'en face ; dégagement peu important sous lavabo ; miroir placé trop haut
	Cuisine : mobilier et électro-ménager accessibles
	Salle à manger : table avec dégagement un peu trop bas mais possibilité de s'installer confortablement en bout de table

";"Points faibles


	Porte d'entrée : résistance à l'ouverture assez forte au 1er étage ; mais absence de résistance pour la porte du rez-de-chaussée
	Salle de douche : siège de douche rabattable mais barre d'appui principale trop éloignée ; robinetterie inaccessible depuis le siège car placée sur le mur d'en face 

";"Points faibles


	Cuisine : boutons de la cuisinière sans crans ; cuisinière à gaz
	Escalier : pas de sécurisation de la cage d'escalier

";"Points faibles


	Cuisine : boutons de la cuisinière sans crans

";"Point fort


	Sécurité : alerte doublée d'un flash lumineux


 

Point faible  


	Salle à manger : pas de table ronde

";"Point fort


	Sécurité : alerte doublée d'un flash lumineux


 

Point faible  


	Salle à manger : pas de table ronde

";"Point faible


	Cuisine : cuisinière à gaz

";;;;;;;;;Pascale et Pascal ;Christiaens;087 71 90 44;;;info@gitesauxanes.be;1/04/2014;;1/04/2017;Gamah asbl;Sarah Logan;28/10/2013;" 

 

 

 
";17/04/2014 08:34
116;Maison du Tourisme du Pays de Herve;Bâtiment;Publiée;;;Infrastructure touristique/culturelle/sportive/récréative;"La Maison du Tourisme du Pays de Herve met en valeur les attraits touristiques de 6 communes situées en Province de Liège : Aubel, Herve, Olne, Plombières, Thimister-Clermont et Welkenraedt.

 

Elle vous propose :

&bull;    de nombreux plans de promenades, livres historiques, souvenirs ""vaches"",

&bull;    un point de vente de produits du terroir,

&bull;    une projection multimédia, l'Espace des Saveurs et Découvertes, véritable apéritif avant toute escapade dans la région,

&bull;    un service de location de VTT et VTC ainsi que de vélos à assistance électrique pour vous évader en toute sécurité sur la Ligne 38, intégrée au réseau RAVeL,

&bull;    une salle d'exposition permanente,

&bull;    un point de vente billetterie SHERPA.

 

 

 

 

 
";;;;Liège;Herve;4650;Place de la gare, 1;087 69 31 70;;info@paysdeherve.be;www.paysdeherve.be;Vert;Vert;Orange;Orange;Orange;Orange;Orange;"Le bâtiment est facilement identifiable : l'enseigne et le numéro postal sont bien visibles.

Au niveau du stationnement, 2 emplacements sur 20 sont réservés et fléchés. Ils sont délimités par des haies et le revêtement est en dolomie bien stabilisé.

A l'intérieur du bâtiment, les espaces sont de plain-pied.

Le personnel est présent en permanence pour aider les visiteurs.
";"Points forts


	Entrée PMR : facilement identifiable, accessible par l'arrière du bâtiment
	Guichet d'accueil : une partie est surbaissée
	Circulation : circulation intérieure de plain-pied


 

Points faibles


	Entrée PMR : présence d'un ressaut de max 1,5 cm non biseauté.
	WC : aire de rotation du sas entravée par le débattement de porte mais possibilité d'entrer moyennant un coup de main ; aire de transfert de 95 cm

";"Points forts


	Entrée PMR : facilement identifiable, accessible par l'arrière du bâtiment
	Circulation : circulation intérieure de plain-pied


 

Point faible


	Entrée principale : 2 marches sans main-courante

";"Points faibles


	Entrée PMR : une borne de consultation internet est placée contre le mur avec auvent en saillie non détectable à la canne
	Adaptation : pas d'adaptation spécifique

";"Point faible


	Entrée PMR : une borne de consultation internet est placée contre le mur avec auvent en saillie non détectable à la canne

";"Points faibles


	Langue des signes : le personnel ne connaît pas la langue des signes
	Adaptation : pas d'adaptation spécifique

";"Point faible


	Guichet : pas de boucle à indiction magnétique, mais guichet de type « ouvert »

";"Point faible


	Adaptation : pas de brochure en facile à lire

";;;;;;;;;Anne;Zinnen;087 69 31 70;;;anne.zinnen@paysdeherve.be;1/04/2014;;1/04/2017;Gamah asbl;Alexandra Dusausoy;9/10/2013;"L'entrée principale devrait devenir l'entrée PMR actuelle fin de l'année 2014
";17/04/2014 09:05
117;Chambres d?hôtes à la ferme « Du soir au matin »;Bâtiment;Publiée;;;Hébergement;"Aménagé dans les dépendances d'une ferme laitière en activité, 'du soir au matin' vous accueille toute l'année, dans la simplicité et la bonne humeur.

À proximité de Verviers et à une trentaine de kilomètres de Liège, Maastricht et Aachen, l'endroit conviendra tout autant aux amateurs de promenades désireux de découvrir la région vallonnée du Pays de Herve et de la vallée de la Vesdre qu'aux travailleurs, les hébergements étant adossés au Zoning des Plénesses.

 

Quatre chambres d'hôtes joliment décorées, toutes équipées d'une salle de douche privée. Des promenades dans la région vallonnée du Pays de Herve et de la vallée de la Vesdre sont la recette d'un agréable séjour. 

Une chambre deux personnes est entièrement équipée et adaptée pour personne à mobilité réduite. Chaque chambre a son entrée privée.
";;;;Liège;Andrimont;4821;Rue Clisore, 70;087 33 48 09;087 33 48 09;dusoiraumatin@skynet.be;www.dusoiraumatin.be ;Vert;Vert;Vert;Vert;Vert;Vert;Vert;"Au rez-de-chaussée, le vaste séjour réservé aux vacanciers où vous sera servi un copieux petit-déjeuner comprend également un coin salon idéal pour se relaxer. Accueil personnalisé par les propriétaires.

Présence d'un fléchage et d'une enseigne à l'entrée.

Présence d'un emplacement de stationnement sur une surface plane et de bonnes dimensions.
";"Points forts


	Stationnement : présence d'un emplacement de stationnement sur une surface plane et de bonnes dimensions
	Entrée : porte d'entrée avec passage bien large


 

Points faibles


	Voie d'accès : réduction ponctuelle de la largeur mais pas problématique
	Entrée : petit ressaut de 1 cm ; 35 cm de distance latérale pour accéder à la poignée de la porte extérieure ; sonnette peu accessible
	WC PMR : barre d'appui principale un peu trop courte
	Salle de douche : barre d'appui secondaire un peu trop courte

";"Points forts


	Stationnement : présence d'un emplacement de stationnement sur une surface plane et de bonnes dimensions
	Entrée : porte d'entrée avec passage bien large

";"Point faible


	Voie d'accès : escalier en saillie mais ne se situe pas sur le parcours logique; besoin d'un coup de main pour rejoindre l'entrée

";"Point faible


	Voie d'accès : escalier en saillie mais ne se situe pas sur le parcours logique; besoin d'un coup de main pour rejoindre l'entrée

";"Point fort


	Sécurité : système d'alarme doublé d'un flash lumineux

";"Point fort


	Sécurité : système d'alarme doublé d'un flash lumineux

";"Point fort


	Accueil personnalisé par les propriétaires

";;;;;;;;;Bernadette et Georges ;Pittie;087 33 48 09;087 33 48 09;;dusoiraumatin@skynet.be ;1/04/2014;;1/04/2017;Gamah asbl;Sarah Logan;28/10/2013;;17/04/2014 09:31
118;Brasserie Les Saisons de Spa;Bâtiment;Publiée;;;Restauration;"La Brasserie 'Les Saisons de Spa' est l'endroit idéal pour savourer des salades ou des spécialités brasserie internationales et régionales. Des menus de saison inspiré des 4 coins du globe sont également disponibles.

La superbe terrasse extérieure chauffée attirera votre attention avec sa vue sur le coeur de Spa.
";;;;Liège;Spa;4900;Place Royale, 39;087/ 279 700;087/ 27 97 01;info.spapalace@radissonblu.com;www.radissonblu.fr/palacehotel-spa/restaurant;Orange;Vert;Orange;Orange;Orange;Orange;Orange;"La brasserie se trouve dans le même bâtiment que l'hôtel Radisson Blue Palace, l'enseigne avec le logo est bien visible.

Un parking est situé en sous-sol de l'hôtel-restaurant, un ticket est à prendre à l'entrée via une borne et le règlement se fait à la réception.

L'accès en voirie se fait par un trottoir public suivi d'une rampe extérieure qui compense les 4 marches de l'escalier.

La porte d'entrée est une porte à tambour doublée d'une porte battante juste à côté.

Les chiens d'assistance sont les bienvenus, tant à la Brasserie que dans les chambres de l'hôtel adjacent, le ""Radisson Blu Palace Hôtel"".

 

 

 

 
";"Points forts


	
	Stationnement : parking payant avec emplacements PMR en sous-sol donnant accès directement au restaurant via un ascenseur
	
	
	Accès : cheminement et entrée à rue rendus accessibles grâce à la présence d'unerampe qui compense les quelques marches à l'entrée

	 
	


Points faibles


	
	Salle de restauration : le restaurant ne comporte pas d'aménagement particulier ; buffet à 95 cm de haut sans dégagement par-dessous et bar à 125 cm du sol
	
	
	WC PMR : la toilette PMR située au rez-de-chaussée dans le grand hall de l'hôtel, n'est pas facile d'utilisation, cuvette placée dans l'axe de la porte, aire de rotation réduite
	


 

 

 

 

 
";"Points forts


	
	Stationnement : parking payant en sous-sol donnant accès directement à l'hôtel via un ascenseur avec emplacement PMR
	
	
	Accès : cheminement et entrée à rue rendus accessibles grâce à la présence d'unerampe qui compense les quelques marches à l'entrée, rampe sécurisante car comprise entre deux murs et comporte des mains-courantes de part et d'autre
	
	
	Circulation : restaurant au rez-de-chaussée et proche de l'entrée ; petite distance à parcourir
	


 

 

 

 
";"Points forts 


	
	Stationnement : parking payant en sous-sol donnant accès directement à l'hôtel via un ascenseur avec emplacement PMR
	
	
	Accueil : l'accueil de l'hôtel juste à côté de l'entrée permet d'orienter vers le restaurant qui est juste à gauche de l'entrée
	


 

Points faibles 


	
	Circulation : aucune information tactile ou podotactile ni à l'extérieur, ni à l'intérieur
	
	
	Adaptation : pas de carte en braille
	


 

 

 

 
";"Points forts 


	
	Stationnement : parking payant en sous-sol donnant accès directement à l'hôtel via un ascenseur avec emplacement PMR
	
	
	Accueil : l'accueil de l'hôtel juste à côté de l'entrée permet d'orienter vers le restaurant qui est juste à gauche de l'entrée
	


 

Points faibles 


	
	Circulation : peu de contraste de manière générale et vitrage non sécurisé, principalement à l'entrée
	
	
	Adaptation : pas de carte en grands caractères
	

";"Points faibles


	
	Adaptation : le personnel n'est pas formé à la langue des signes
	
	
	Sécurité : pas d'alerte doublée de flash lumineux
	


 

 

 

 

 
";"Point faible


	
	Adaptation : pas de boucle à induction magnétique
	


 

 

 

 
";"Point faible


	
	Adaptation : pas d'accueil spécifique
	


 

 

 

 
";;;;;;;;;Benoît;Ruelle;087 27 97 30 ;087 27 97 01 ;;benoit.ruelle@radissonblu.com ;1/04/2014;;1/04/2017;Plain-Pied asbl;Laurence Tonglet;26/09/2013;" 

 

 

 

 

 
";17/04/2014 09:54
283;Hôtel IBIS Namur;Bâtiment;Publiée;Laurence Tonglet;;Hébergement;"Situé à 600 mètres de la gare et à deux pas de l'université, du Casino et du centre historique et commercial de Namur, l'hôtel offre 92 chambres entièrement équipées, dont 3 adaptées, un bar, un service d'en-cas 24 h/24 et 7 j/7 et un parking payant. WIFI gratuit et coin Internet.

Découvrez Namur, capitale de la Wallonie, célèbre pour sa citadelle et son emplacement unique sur la confluence de la Meuse et de la Sambre : une destination conviviale de détente pour les voyageurs d'affaires, les touristes et les sportifs !
";;;;Namur;Namur;5000;Rue du Premier Lanciers, 10;081 25 75 40;081 25 75 50;h3151@accor.com;www.ibis.com;Gris;Gris;Orange;Orange;Gris;Gris;Vert;"L'hôtel se situe à 600 m de la gare de Namur, il est desservit par des bus et se situe à proximité du centre.

Un parking est disponible à l'arrière du bâtiment ainsi qu'un payant en sous-sol.

L'entrée comporte une marche 20 cm. Une porte située à l'arrière est proposée comme entrée alternative.

L'hôtel dispose de 3 chambres adaptées aux personnes à mobilité réduite.

L'accueil y est personnalisé et l'échelle de l'établissement reste familiale.   
";"Points forts


	Stationnement : Parking payant en sous-sol donnant accès directement à l'hôtel via un ascenseur. Une aide sera nécessaire pour ouvrir la porte de l'hôtel et circuler dans les couloirs étroits du sous-sol. Parking extérieur à l'arrière du bâtiment.
	Entrée : l'alternative à la porte d'entrée principale est disponible à l'arrière du bâtiment. Attention cette porte ne comporte qu'un libre passage de 78 cm et un plan incliné métallique pour combler une marche. Le couloir arrière qui mène à l'accueil est étroit. Dans ces conditions, les portes ne pourront probablement pas être franchies en autonomie.
	Accueil : comptoir d'accueil avec partie surbaissée. Le personnel à l'accueil à vue sur l'ensemble des fonctions communes du rez-de-chaussée. Attentif, il est présent en cas de besoin ponctuel.
	Chambres : 3 chambres adaptées avec salle de bains comportant une aire de rotation et une douche de plain-pied. Elles disposent si besoin d'une chambre voisine qui communique avec la chambre PMR via une porte intérieure.
	Salle de restauration : pas d'aménagement particulier ; buffet avec tablette qui permet de déposer son plateau. Du personnel est présent lors des déjeuners pour une aide ponctuelle.


 

Points faibles


	Entrée : même l'accès alternatif demande une aide. La porte d'entrée avec un libre passage de 78 cm empêchera certaines personnes en chaise roulante d'y accéder.
	Chambres : les chambres adaptées ne disposent que d'un passage de moins de 90 cm en bout de lit pour accéder à la salle de bain (avec porte coulissante). La salle de douche ne comporte pas de barres d'appui mais un siège de douche est présent.


 
";"Points forts


	Stationnement : Parking payant en sous-sol donnant accès directement à l'hôtel via un ascenseur. Parking extérieur à l'arrière du bâtiment.
	Entrée : l'alternative à la porte d'entrée principale est disponible à l'arrière du bâtiment. Attention cette porte ne comporte qu'un libre passage de 78 cm et un plan incliné métallique pour combler une marche.
	Chambres : 3 chambres adaptées avec salle de bains comportant une douche de plain-pied. Elles disposent si besoin d'une chambre voisine qui communique avec la chambre PMR via une porte intérieure.
	Accueil : le personnel à l'accueil à vue sur l'ensemble des fonctions communes du rez-de-chaussée. Attentif, il est présent en cas de besoin ponctuel.
	Salle de restauration : pas d'aménagement particulier ; buffet avec tablette qui permet de déposer son plateau. Du personnel est présent lors des déjeuners pour une aide ponctuelle.


 

Points faibles


	Chambres : La salle de douche ne comporte pas de barres d'appui mais un siège de douche est présent.
	WC PMR : celui situé sous-sol qui ne comporte pas de barres d'appui.

";"Points forts


	Stationnement : Parking payant en sous-sol donnant accès directement à l'hôtel via un ascenseur avec emplacement PMR. Parking extérieur à l'arrière du bâtiment.
	Accueil : accueil situé juste à côté de l'entrée permet d'être accueilli dès l'entrée dans le bâtiment. Le personnel peut guider jusqu'à la chambre et faire une description de celle-ci lors de la première visite. Le personnel à l'accueil à vue sur l'ensemble des fonctions communes du rez-de-chaussée. Attentif, il est présent en cas de besoin ponctuel.


 

Points faibles


	Entrée : porte d'entrée difficile à identifier sur la façade.
	Adaptation : aucune information tactile ou podotactile, pas de numéro de chambre en relief.
	Ascenseur : pas de synthèse vocale.

";"Points forts


	Stationnement : Parking payant en sous-sol donnant accès directement à l'hôtel via un ascenseur avec emplacement PMR. Parking extérieur à l'arrière du bâtiment.
	Accueil : accueil situé juste à côté de l'entrée permet d'être accueilli dès l'entrée dans le bâtiment. Le personnel peut guider jusqu'à la chambre lors de la première visite. Le personnel à l'accueil à vue sur l'ensemble des fonctions communes du rez-de-chaussée. Attentif, il est présent en cas de besoin ponctuel.
	Couloirs et portes des chambres contrastées.


 

Points faibles


	Entrée : porte d'entrée difficile à identifier sur la façade.
	Adaptation : aucune information tactile ou podotactile.
	Ascenseur : pas de synthèse vocale.

";"Points forts


	Accueil : le personnel à l'accueil à vue sur l'ensemble des fonctions communes du rez-de-chaussée. Attentif, il est présent en cas de besoin ponctuel.


 

Points faibles


	Accueil : éclairage un peu faible pour la lecture labiale
	Sécurité : pas d'alerte doublée de flash lumineux.
	Adaptation : pas de personne formée à la langue des signes.

";"Points forts


	Accueil : le personnel à l'accueil à vue sur l'ensemble des fonctions communes du rez-de-chaussée. Attentif, il est présent en cas de besoin ponctuel.


 

Points faibles


	Sécurité : pas d'alerte doublée de flash lumineux.
	Accueil : éclairage un peu faible pour la lecture labiale

";"Points forts

Bâtiment simple, de petite taille et le personnel à l'accueil à vue sur l'ensemble des fonctions communes du rez-de-chaussée. Attentif, il est présent en cas de besoin ponctuel.
";;;;;;;;;Patrick;Van Londersele;081/25 75 40;081/25 75 50;;patrick.vanlondersele@accor.com;1/01/2015;;1/01/2018;Plain-Pied;Laurence Tonglet et Julie Vanhalewijn;16/12/2014;"relevé test tablette avec ANLH
";18/12/2014 16:48
